[gd_scene load_steps=4 format=2]

[ext_resource path="res://Assets/props.png" type="Texture" id=1]

[sub_resource type="AtlasTexture" id=1]
atlas = ExtResource( 1 )
region = Rect2( 0, 0, 32, 32 )

[sub_resource type="SpriteFrames" id=2]
animations = [ {
"frames": [ SubResource( 1 ) ],
"loop": true,
"name": "idle",
"speed": 5.0
} ]

[node name="MarginContainer" type="MarginContainer"]
anchor_right = 1.0
anchor_bottom = 1.0
__meta__ = {
"_edit_use_anchors_": false
}

[node name="AnimatedSprite" type="AnimatedSprite" parent="."]
position = Vector2( 304, 16 )
frames = SubResource( 2 )
animation = "idle"
